…
### Carga y preparación de los datos

```r
    base <- read_excel("databases/Model_Breakdown_by_PIN_11th_Digit_Full_Data_data.xlsx") %>% 
      clean_names()
```
```r
    print(base)
```

    ## # A tibble: 32,594 × 20
    ##    decal_model_nm alert_level tla_spn_fmi alert_defn_dsc    dealer_name pin_prefix prod_line_nm tier_level
    ##    <chr>          <chr>       <chr>       <chr>             <chr>       <chr>      <chr>        <chr>     
    ##  1 310L           YELLOW      PDU-2251.9  YELLOW   PDU 002… SALINAS Y … 1BZ        BACKHOE LOA… Non-Certi…
    ##  2 310L           YELLOW      PDU-2251.9  YELLOW   PDU 002… SALINAS Y … 1BZ        BACKHOE LOA… Non-Certi…
    ##  3 310L           YELLOW      PDU-2251.9  YELLOW   PDU 002… SALINAS Y … 1BZ        BACKHOE LOA… Non-Certi…
    ##  4 ZAXIS 210-5    INFO        ICZ-32000.2 INFO ICZ 32000.2… SALINAS Y … 1F9        EXCAVATORS … <NA>      
    ##  5 310L           INFO        ECU-97.3    INFO   ECU 00009… SALINAS Y … 1T0        BACKHOE LOA… NO ENGINE…
    ##  6 310L           INFO        ECU-97.3    INFO   ECU 00009… SALINAS Y … 1T0        BACKHOE LOA… NO ENGINE…
    ##  7 310L           INFO        ECU-97.3    INFO   ECU 00009… SALINAS Y … 1T0        BACKHOE LOA… NO ENGINE…
    ##  8 310L           INFO        ECU-97.3    INFO   ECU 00009… SALINAS Y … 1T0        BACKHOE LOA… NO ENGINE…
    ##  9 310L           INFO        ECU-97.3    INFO   ECU 00009… SALINAS Y … 1T0        BACKHOE LOA… NO ENGINE…
    ## 10 310L           INFO        ECU-97.3    INFO   ECU 00009… SALINAS Y … 1T0        BACKHOE LOA… NO ENGINE…
    ## # ℹ 32,584 more rows
    ## # ℹ 12 more variables: tla <chr>, dealer_acct_id <dbl>, first_cptr_tm <dttm>, mfg_dt <dttm>,
    ## #   native_pin <chr>, pin <chr>, start_of_month <dttm>, first_dtc_engn_hours <dbl>,
    ## #   last_known_engn_hours <dbl>, last_known_lat <dbl>, last_known_long <dbl>, sum_ocr_cnt <dbl>
…
```r
    base_desc <- read_excel("databases/DESCRIPCTIVOS EQUIPO JD.xlsx") %>% 
      clean_names()
```
```r
    print(base_desc)
```

    ## # A tibble: 4,131 × 10
    ##    vin_equipo        fecha_facturacion   marca      modelo       tipo_maquina_nivel_2 tipo_maquina_nivel_3
    ##    <chr>             <dttm>              <chr>      <chr>        <chr>                <chr>               
    ##  1 1BZ310KXAGC000684 2016-07-25 00:00:00 JOHN DEERE JD RETRO 31… MAQ CONSTRUCCION     RETROEXCAVADORA     
    ##  2 1BZ310KXAGC000698 2016-08-10 00:00:00 JOHN DEERE JD RETRO 31… MAQ CONSTRUCCION     RETROEXCAVADORA     
    ##  3 1BZ310KXAGC000717 2016-09-26 00:00:00 JOHN DEERE JD RETRO 31… MAQ CONSTRUCCION     RETROEXCAVADORA     
    ##  4 1BZ310KXAGC000720 2016-09-07 00:00:00 JOHN DEERE JD RETRO 31… MAQ CONSTRUCCION     RETROEXCAVADORA     
    ##  5 1BZ310KXAGC000734 2016-12-01 00:00:00 JOHN DEERE JD RETRO 31… MAQ CONSTRUCCION     RETROEXCAVADORA     
    ##  6 1BZ310KXAGC000846 2016-11-30 00:00:00 JOHN DEERE JD RETRO 31… MAQ CONSTRUCCION     RETROEXCAVADORA     
    ##  7 1BZ310KXAGC000863 2017-01-27 00:00:00 JOHN DEERE JD RETRO 31… MAQ CONSTRUCCION     RETROEXCAVADORA     
    ##  8 1BZ310KXCGC000688 2016-06-30 00:00:00 JOHN DEERE JD RETRO 31… MAQ CONSTRUCCION     RETROEXCAVADORA     
    ##  9 1BZ310KXCGC000691 2016-08-04 00:00:00 JOHN DEERE JD RETRO 31… MAQ CONSTRUCCION     RETROEXCAVADORA     
    ## 10 1BZ310KXCGC000696 2016-08-12 00:00:00 JOHN DEERE JD RETRO 31… MAQ CONSTRUCCION     RETROEXCAVADORA     
    ## # ℹ 4,121 more rows
    ## # ℹ 4 more variables: mant_ult_fecha <dttm>, horometro <chr>, odometro <lgl>, n <dbl>
…
Una vez analizada ambas bases, realizamos una integración de ambas por
`ID del equipo`, específicamente las variables `NATIVE_PIN` y
`VIN_EQUIPO` resultando una base de datos integrada denominada
`base_join` de **32.594 observaciones y 29 variables**.

```r
    base_join <- left_join(base, base_desc, by = c("native_pin" = "vin_equipo"))
```
```r
    print(base_join)
```

    ## # A tibble: 32,594 × 29
    ##    decal_model_nm alert_level tla_spn_fmi alert_defn_dsc    dealer_name pin_prefix prod_line_nm tier_level
    ##    <chr>          <chr>       <chr>       <chr>             <chr>       <chr>      <chr>        <chr>     
    ##  1 310L           YELLOW      PDU-2251.9  YELLOW   PDU 002… SALINAS Y … 1BZ        BACKHOE LOA… Non-Certi…
    ##  2 310L           YELLOW      PDU-2251.9  YELLOW   PDU 002… SALINAS Y … 1BZ        BACKHOE LOA… Non-Certi…
    ##  3 310L           YELLOW      PDU-2251.9  YELLOW   PDU 002… SALINAS Y … 1BZ        BACKHOE LOA… Non-Certi…
    ##  4 ZAXIS 210-5    INFO        ICZ-32000.2 INFO ICZ 32000.2… SALINAS Y … 1F9        EXCAVATORS … <NA>      
    ##  5 310L           INFO        ECU-97.3    INFO   ECU 00009… SALINAS Y … 1T0        BACKHOE LOA… NO ENGINE…
    ##  6 310L           INFO        ECU-97.3    INFO   ECU 00009… SALINAS Y … 1T0        BACKHOE LOA… NO ENGINE…
    ##  7 310L           INFO        ECU-97.3    INFO   ECU 00009… SALINAS Y … 1T0        BACKHOE LOA… NO ENGINE…
    ##  8 310L           INFO        ECU-97.3    INFO   ECU 00009… SALINAS Y … 1T0        BACKHOE LOA… NO ENGINE…
    ##  9 310L           INFO        ECU-97.3    INFO   ECU 00009… SALINAS Y … 1T0        BACKHOE LOA… NO ENGINE…
    ## 10 310L           INFO        ECU-97.3    INFO   ECU 00009… SALINAS Y … 1T0        BACKHOE LOA… NO ENGINE…
    ## # ℹ 32,584 more rows
    ## # ℹ 21 more variables: tla <chr>, dealer_acct_id <dbl>, first_cptr_tm <dttm>, mfg_dt <dttm>,
    ## #   native_pin <chr>, pin <chr>, start_of_month <dttm>, first_dtc_engn_hours <dbl>,
    ## #   last_known_engn_hours <dbl>, last_known_lat <dbl>, last_known_long <dbl>, sum_ocr_cnt <dbl>,
    ## #   fecha_facturacion <dttm>, marca <chr>, modelo <chr>, tipo_maquina_nivel_2 <chr>,
    ## #   tipo_maquina_nivel_3 <chr>, mant_ult_fecha <dttm>, horometro <chr>, odometro <lgl>, n <dbl>
…
      mutate("fecha_mantencion" = as.character(format(mant_ult_fecha, "%Y"))) %>% 
      mutate(mantencion_previa = factor(case_when(fecha_mantencion == "2019" ~ "Si", 
                                                  fecha_mantencion == "2020" ~ "Si",
                                                  TRUE ~ "No"))) %>% 
      select(-dealer_acct_id, -pin, -tier_level, -dealer_name, -start_of_month, 
             -last_known_lat, -last_known_long, -mfg_dt, -hour_first_cptr_tm, 
             -last_known_engn_hours, -tla_spn_fmi, -fecha_mantencion, -mant_ult_fecha,
             -fecha_facturacion, -marca, -modelo, -tipo_maquina_nivel_3, -horometro, -odometro,
             -n)
```
```r
    print(base_join2)
```

    ## # A tibble: 32,594 × 14
    ##    decal_model_nm alert_level alert_defn_dsc        pin_prefix prod_line_nm tla   first_cptr_tm native_pin
    ##    <chr>          <chr>       <chr>                 <chr>      <chr>        <chr> <date>        <chr>     
    ##  1 310L           YELLOW      YELLOW   PDU 002251.… 1BZ        BACKHOE LOA… PDU   2020-08-23    1BZ310LAK…
    ##  2 310L           YELLOW      YELLOW   PDU 002251.… 1BZ        BACKHOE LOA… PDU   2020-05-11    1BZ310LAK…
    ##  3 310L           YELLOW      YELLOW   PDU 002251.… 1BZ        BACKHOE LOA… PDU   2020-09-12    1BZ310LAK…
    ##  4 ZAXIS 210-5    INFO        INFO ICZ 32000.2 Coo… 1F9        EXCAVATORS … ICZ   2020-01-21    1F9DCDG1C…
    ##  5 310L           INFO        INFO   ECU 000097.03… 1T0        BACKHOE LOA… ECU   2020-07-10    1T0310LXC…
    ##  6 310L           INFO        INFO   ECU 000097.03… 1T0        BACKHOE LOA… ECU   2020-08-03    1T0310LXC…
    ##  7 310L           INFO        INFO   ECU 000097.03… 1T0        BACKHOE LOA… ECU   2020-09-01    1T0310LXC…
    ##  8 310L           INFO        INFO   ECU 000097.03… 1T0        BACKHOE LOA… ECU   2020-10-01    1T0310LXC…
    ##  9 310L           INFO        INFO   ECU 000097.03… 1T0        BACKHOE LOA… ECU   2020-11-02    1T0310LXC…
    ## 10 310L           INFO        INFO   ECU 000097.03… 1T0        BACKHOE LOA… ECU   2020-12-01    1T0310LXC…
    ## # ℹ 32,584 more rows
    ## # ℹ 6 more variables: first_dtc_engn_hours <dbl>, sum_ocr_cnt <dbl>, tipo_maquina_nivel_2 <chr>,
    ## #   MFG_DT <date>, año_facturacion <chr>, mantencion_previa <fct>
…
